id_obat,id_produk,id_merk_obat,netto,dosis,aturan_pakai,kontraindikasi,bentuk_kesediaan
1,11,1,250,1/2 tablet,"Nam congue, risus semper porta volutpat, quam pede lobortis ligula, sit amet eleifend pede libero quis orci. Nullam molestie nibh in lectus.","Nam dui. Proin leo odio, porttitor id, consequat in, consequat ut, nulla. Sed accumsan felis.",In hac habitasse platea dictumst. Etiam faucibus cursus urna. Ut tellus.
2,15,3,150,1/2 tablet,,Proin interdum mauris non ligula pellentesque ultrices. Phasellus id sapien in sapien iaculis congue.,Vestibulum rutrum rutrum neque. Aenean auctor gravida sem. Praesent id massa id nisl venenatis lacinia.
3,4,3,350,1 sendok makan,Maecenas tincidunt lacus at velit. Vivamus vel nulla eget eros elementum pellentesque. Quisque porta volutpat erat.,,"Nam ultrices, libero non mattis pulvinar, nulla pede ullamcorper augue, a suscipit nulla elit ac nulla. Sed vel enim sit amet nunc viverra dapibus. Nulla suscipit ligula in lacus."
4,18,3,350,1 tablet,"Nullam orci pede, venenatis non, sodales sed, tincidunt eu, felis. Fusce posuere felis sed lacus.","Cum sociis natoque penatibus et magnis dis parturient montes, nascetur ridiculus mus. Etiam vel augue. Vestibulum rutrum rutrum neque.",Nulla facilisi. Cras non velit nec nisi vulputate nonummy. Maecenas tincidunt lacus at velit.
5,15,2,400,1 sendok makan,Aenean auctor gravida sem.,Nulla facilisi. Cras non velit nec nisi vulputate nonummy.,In hac habitasse platea dictumst.
6,17,4,450,1 tablet,Fusce consequat. Nulla nisl. Nunc nisl.,,Praesent id massa id nisl venenatis lacinia. Aenean sit amet justo. Morbi ut odio.
7,10,3,450,1/2 tablet,Morbi ut odio.,,Vestibulum ante ipsum primis in faucibus orci luctus et ultrices posuere cubilia Curae; Duis faucibus accumsan odio. Curabitur convallis. Duis consequat dui nec nisi volutpat eleifend.
8,17,1,150,1 sendok makan,Nulla suscipit ligula in lacus. Curabitur at ipsum ac tellus semper interdum.,,Nullam molestie nibh in lectus.
9,17,4,400,1/2 tablet,,,"Morbi sem mauris, laoreet ut, rhoncus aliquet, pulvinar sed, nisl."
10,15,2,400,1 sendok makan,,Aenean fermentum. Donec ut mauris eget massa tempor convallis.,Etiam justo. Etiam pretium iaculis justo. In hac habitasse platea dictumst.
11,5,4,250,1 tablet,,Etiam vel augue. Vestibulum rutrum rutrum neque.,Integer tincidunt ante vel ipsum. Praesent blandit lacinia erat. Vestibulum sed magna at nunc commodo placerat.
12,20,3,150,1 sendok makan,,"Quisque porta volutpat erat. Quisque erat eros, viverra eget, congue eget, semper rutrum, nulla. Nunc purus.",In hac habitasse platea dictumst.
13,17,1,150,1 tablet,Phasellus id sapien in sapien iaculis congue.,"Maecenas tristique, est et tempus semper, est quam pharetra magna, ac consequat metus sapien ut nunc. Vestibulum ante ipsum primis in faucibus orci luctus et ultrices posuere cubilia Curae; Mauris viverra diam vitae quam.",Cras non velit nec nisi vulputate nonummy. Maecenas tincidunt lacus at velit.
14,13,5,200,1 sendok makan,,Cras pellentesque volutpat dui.,Nulla suscipit ligula in lacus. Curabitur at ipsum ac tellus semper interdum.
15,17,5,150,1 tablet,Donec dapibus.,,"Donec diam neque, vestibulum eget, vulputate ut, ultrices vel, augue. Vestibulum ante ipsum primis in faucibus orci luctus et ultrices posuere cubilia Curae; Donec pharetra, magna vestibulum aliquet ultrices, erat tortor sollicitudin mi, sit amet lobortis sapien sapien non mi."